…
``` r
merged_birth %>%
  dplyr::select("NAME", "year", "pregnancyrate2024") %>%
  group_by(NAME) %>%
  summarise(average_rate = mean(pregnancyrate2024), 
            median_rate = median(pregnancyrate2024),
            min_rate = min(pregnancyrate2024),
            max_rate = max(pregnancyrate2024))
```

    ## # A tibble: 50 x 5
    ##    NAME        average_rate median_rate min_rate max_rate
    ##    <chr>              <dbl>       <dbl>    <dbl>    <dbl>
    ##  1 Alabama             152.        146.    133.      187.
    ##  2 Alaska              176.        184.    135       209.
    ##  3 Arizona             158.        147.    115.      204 
    ##  4 Arkansas            169.        164.    143.      196.
    ##  5 California          147.        142.    102.      203.
    ##  6 Colorado            130.        128.     94.7     163.
    ##  7 Connecticut         118.        119      76.7     147.
    ##  8 Delaware            156.        159.    116.      202.
    ##  9 Florida             155.        150.    119.      214.
    ## 10 Georgia             161.        157.    129.      193.
    ## # ... with 40 more rows
…
